################################
###########################..###
##########################...###
#########################..#####
####...##################.######
#####..################...#.####
#....G.G#########.####..G...####
#.......########.......GE....###
#..........###..G..#..........##
####...##......##..G..........##
####G.G.#.....###.............##
####..G....GG...............####
####..........#####.........####
####.....#...#######.......#####
###......G..#########..G..######
###...GG....#########..G.#######
###...G.....#########..EE..#####
####.....G..#########.......####
#####.......#########.......####
######...##G.#######........####
######.#.#..G.#####.....##..####
########...EE.......E...##..####
########.....#######........####
########......######.....##E...#
########......#####....E#......#
########.....######.......E....#
##################...#....E....#
##################.............#
###################........#####
####################....#...####
####################.###########
################################
